#STEP_FILE ! FILE_SIZE ! MOD_TIME

User Library-DFN10-2.STEP ! 243022 ! 1567759136
TPS62142RGTR.stp ! 420354 ! 1596043578
c-1571610-1-c-3d.stp ! 164825 ! 1343402036
JS102011SAQN.STP ! 529699 ! 1596571118
20021221-00010XXLFc.stp ! 258277 ! 1247862956
LM4510.STEP ! 405132 ! 1595601778
User Library-JST_SM02B-SRSS-TB.STEP ! 244143 ! 1567785744
User Library-QFN-20.STEP ! 716621 ! 1567767338
Bosch_BME280.STEP ! 1063635 ! 1567738414
User Library-U_FL-R-SMT.STEP ! 269680 ! 1575360634
BG96--3DModel-STEP-56544.STEP ! 2350924 ! 1568136076
LQFP64 v1.step ! 1531143 ! 1518812914
C-0402.STEP ! 45524 ! 1550145960
C-0805.STEP ! 45577 ! 1550145960
User Library-XQFN-16-1.STEP ! 821840 ! 1575389856
JS102011JCQN.stp ! 648076 ! 1565897600
S10B-PHDSS.STEP ! 530540 ! 1277139116
te_1977067_1.stp ! 671282 ! 1568293246
USB_10118192C.stp ! 3777772 ! 1422861828
User Library-10118192.STEP ! 3793266 ! 1559939146
TSHSCM-809-D-06-090-T-TR-P-LF.STEP ! 142577 ! 1567603127
S2B-PH-SM4-TBLFSN.stp ! 378257 ! 1596570002
C-1206.STEP ! 45570 ! 1550145960
LIS2DH12TR--3DModel-STEP-56544.STEP ! 298373 ! 1567785350
RES0402.stp ! 86221 ! 1370700454
C-0603.STEP ! 45558 ! 1550145960
