(---------------------------------------------------------------------)
(                                                                     )
(    Allegro Netrev Import Logic                                      )
(                                                                     )
(    Drawing          : BG95_MIOT_V2_1 Rev.A.brd                      )
(    Software Version : 17.2S058                                      )
(    Date/Time        : Fri Mar 06 12:27:36 2020                      )
(                                                                     )
(---------------------------------------------------------------------)


------ Directives ------------

Ripup etch:                  No
Ripup delete first segment:  No
Ripup retain bondwire:       No
Ripup symbols:               Always
Missing symbol has error:    No
DRC update:                  Yes
Schematic directory:         'C:/Users/Bewhere/Documents/V2.1 Rev.A/Layout'
Design Directory:            'C:/Users/Bewhere/Documents/V2.1 Rev.A/Layout'
Old design name:             'C:/Users/Bewhere/Documents/V2.1 Rev.A/Layout/BG95_MIOT_V2_1 Rev.A.brd'
New design name:             'C:/Users/Bewhere/Documents/V2.1 Rev.A/Layout/BG95_MIOT_V2_1 Rev.A.brd'

CmdLine: netrev -$ -i C:/Users/Bewhere/Documents/V2.1 Rev.A/Layout -y 1 -h -z -q netrev_constraint_report.xml C:/Users/Bewhere/Documents/V2.1 Rev.A/Layout/#Taaaabn22752.tmp

------ Preparing to read pst files ------

Starting to read C:/Users/Bewhere/Documents/V2.1 Rev.A/Layout/pstchip.dat 
   Finished reading C:/Users/Bewhere/Documents/V2.1 Rev.A/Layout/pstchip.dat (00:00:00.10)
Starting to read C:/Users/Bewhere/Documents/V2.1 Rev.A/Layout/pstxprt.dat 
   Finished reading C:/Users/Bewhere/Documents/V2.1 Rev.A/Layout/pstxprt.dat (00:00:00.01)
Starting to read C:/Users/Bewhere/Documents/V2.1 Rev.A/Layout/pstxnet.dat 
   Finished reading C:/Users/Bewhere/Documents/V2.1 Rev.A/Layout/pstxnet.dat (00:00:00.00)

------ Oversights/Warnings/Errors ------


------ Library Paths ------
MODULEPATH =  . 
           C:/Cadence/SPB_17.2/share/local/pcb/modules 

PSMPATH =  C:/Users/Bewhere/Documents/Orcad_libs/PCB/Footprints 
           C:/MyProject/MAX7/max7_gps/schematic/allegro/symbols 
           C:/MyProject/MAX7/max7_gps/schematic/allegro/symbols/Pad 
           . 
           symbols 
           .. 
           ../symbols 
           C:/Cadence/SPB_17.2/share/local/pcb/symbols 
           C:/Cadence/SPB_17.2/share/pcb/pcb_lib/symbols 
           C:/Cadence/SPB_17.2/share/pcb/allegrolib/symbols 

PADPATH =  C:/Users/Bewhere/Documents/Orcad_libs/PCB/Pads 
           C:/MyProject/MAX7/max7_gps/schematic/allegro/symbols/Pad 
           . 
           symbols 
           .. 
           ../symbols 
           C:/Cadence/SPB_17.2/share/local/pcb/padstacks 
           C:/Cadence/SPB_17.2/share/pcb/pcb_lib/symbols 
           C:/Cadence/SPB_17.2/share/pcb/allegrolib/symbols 


------ Summary Statistics ------


netrev run on Mar 6 12:27:36 2020
   DESIGN NAME : 'BG95_MIOT_V2_1_REV_A'
   PACKAGING ON Aug  6 2019 19:29:12

   COMPILE 'logic'
   CHECK_PIN_NAMES OFF
   CROSS_REFERENCE OFF
   FEEDBACK OFF
   INCREMENTAL OFF
   INTERFACE_TYPE PHYSICAL
   MAX_ERRORS 500
   MERGE_MINIMUM 5
   NET_NAME_CHARS '#%&()*+-./:=>?@[]^_`|'
   NET_NAME_LENGTH 24
   OVERSIGHTS ON
   REPLACE_CHECK OFF
   SINGLE_NODE_NETS ON
   SPLIT_MINIMUM 0
   SUPPRESS   20
   WARNINGS ON

 No error detected
 No oversight detected
 No warning detected

cpu time      0:06:37
elapsed time  0:00:04

